%YAML 1.1
%TAG !u! tag:unity3d.com,2011:
--- !u!181963792 &2655988077585873504
Preset:
  m_ObjectHideFlags: 0
  m_CorrespondingSourceObject: {fileID: 0}
  m_PrefabInstance: {fileID: 0}
  m_PrefabAsset: {fileID: 0}
  m_Name: AnimatorStateTransition
  m_TargetType:
    m_NativeTypeID: 1101
    m_ManagedTypePPtr: {fileID: 0}
    m_ManagedTypeFallback: 
  m_Properties:
  - target: {fileID: 0}
    propertyPath: m_Conditions.Array.size
    value: 0
    objectReference: {fileID: 0}
  - target: {fileID: 0}
    propertyPath: m_DstStateMachine
    value: 
    objectReference: {fileID: 0}
  - target: {fileID: 0}
    propertyPath: m_DstState
    value: 
    objectReference: {fileID: 1102433948255583038, guid: 62c39ebaccb4ffd4999be8f363396db1,
      type: 2}
  - target: {fileID: 0}
    propertyPath: m_Solo
    value: 0
    objectReference: {fileID: 0}
  - target: {fileID: 0}
    propertyPath: m_Mute
    value: 0
    objectReference: {fileID: 0}
  - target: {fileID: 0}
    propertyPath: m_IsExit
    value: 0
    objectReference: {fileID: 0}
  - target: {fileID: 0}
    propertyPath: m_TransitionDuration
    value: 0
    objectReference: {fileID: 0}
  - target: {fileID: 0}
    propertyPath: m_TransitionOffset
    value: 0
    objectReference: {fileID: 0}
  - target: {fileID: 0}
    propertyPath: m_ExitTime
    value: 0
    objectReference: {fileID: 0}
  - target: {fileID: 0}
    propertyPath: m_HasExitTime
    value: 1
    objectReference: {fileID: 0}
  - target: {fileID: 0}
    propertyPath: m_HasFixedDuration
    value: 1
    objectReference: {fileID: 0}
  - target: {fileID: 0}
    propertyPath: m_InterruptionSource
    value: 0
    objectReference: {fileID: 0}
  - target: {fileID: 0}
    propertyPath: m_OrderedInterruption
    value: 1
    objectReference: {fileID: 0}
  - target: {fileID: 0}
    propertyPath: m_CanTransitionToSelf
    value: 1
    objectReference: {fileID: 0}
