%YAML 1.1
%TAG !u! tag:unity3d.com,2011:
--- !u!78 &1
TagManager:
  serializedVersion: 2
  tags:
  - Follower
  - Checkpoint
  - Cachecol
  - PushBlock
  - AntiDarkTile
  - CGVcam
  layers:
  - Default
  - TransparentFX
  - Ignore Raycast
  - 
  - Water
  - UI
  - 
  - 
  - Ground
  - Trigger
  - OneWayPlatform
  - Player
  - CollideVsGroundOnly
  - Cachecol
  - PushBlock
  - Vila
  - 
  - 
  - 
  - 
  - 
  - 
  - 
  - 
  - 
  - 
  - 
  - 
  - 
  - 
  - 
  - 
  m_SortingLayers:
  - name: Default
    uniqueID: 0
    locked: 0
  - name: PlayerSortingLayer
    uniqueID: 996719297
    locked: 0
  - name: FollowerSortingLayer
    uniqueID: 3654496029
    locked: 0
  - name: Foreground
    uniqueID: 3541538875
    locked: 0
  - name: Darkness
    uniqueID: 2719758229
    locked: 0
  - name: EnemySortingLayer
    uniqueID: 1474038045
    locked: 0
