%YAML 1.1
%TAG !u! tag:unity3d.com,2011:
--- !u!114 &11400000
MonoBehaviour:
  m_ObjectHideFlags: 0
  m_CorrespondingSourceObject: {fileID: 0}
  m_PrefabInstance: {fileID: 0}
  m_PrefabAsset: {fileID: 0}
  m_GameObject: {fileID: 0}
  m_Enabled: 1
  m_EditorHideFlags: 0
  m_Script: {fileID: 11500000, guid: ae0543fe805424df99fe08ce744cbe49, type: 3}
  m_Name: walk10
  m_EditorClassIdentifier: 
  m_PoseEntries:
  - path: Ossos/osso cintura
    localPosition: {x: 0.0035644472, y: -1.0185187, z: 0}
    localRotation: {x: 0, y: 0, z: 0.5809658, w: 0.813928}
    localScale: {x: 1, y: 1, z: 1}
  - path: Ossos/osso cintura/osso corpo
    localPosition: {x: 0.8579554, y: -0.000000059604645, z: 0}
    localRotation: {x: 0, y: 0, z: -0.08132101, w: 0.996688}
    localScale: {x: 1, y: 1, z: 1}
  - path: "Ossos/osso cintura/osso corpo/Osso Pesco\xE7o"
    localPosition: {x: 0.4251004, y: -0.0000000011082193, z: 0}
    localRotation: {x: 0, y: 0, z: 0.1419805, w: 0.9898695}
    localScale: {x: 1, y: 1, z: 1}
  - path: "Ossos/osso cintura/osso corpo/Osso Pesco\xE7o/Osso rosto"
    localPosition: {x: 0.19422312, y: 0.000000013722456, z: 0}
    localRotation: {x: 0, y: 0, z: 0, w: 1}
    localScale: {x: 1, y: 1, z: 1}
  - path: "Ossos/osso cintura/osso corpo/Osso Pesco\xE7o/Osso rosto/Sombrancelha"
    localPosition: {x: 0.39384758, y: -0.1278016, z: 0}
    localRotation: {x: 0, y: 0, z: -0.6429398, w: 0.76591676}
    localScale: {x: 1, y: 1, z: 1}
  - path: "Ossos/osso cintura/osso corpo/Osso Pesco\xE7o/Osso rosto/Sombrancelha/New
      bone"
    localPosition: {x: 0.050418746, y: 0, z: 0}
    localRotation: {x: 0, y: 0, z: -0.17944385, w: 0.9837683}
    localScale: {x: 1, y: 1, z: 1}
  - path: "Ossos/osso cintura/osso corpo/Osso Pesco\xE7o/Osso rosto/Olho"
    localPosition: {x: 0.26884836, y: -0.15929632, z: 0}
    localRotation: {x: 0, y: 0, z: -0.73538774, w: 0.6776466}
    localScale: {x: 1, y: 1, z: 1}
  - path: "Ossos/osso cintura/osso corpo/Osso Pesco\xE7o/Osso rosto/Pontinha"
    localPosition: {x: 0.70410377, y: 0.021552686, z: 0}
    localRotation: {x: 0, y: 0, z: 0.13484246, w: 0.9908671}
    localScale: {x: 1, y: 1, z: 1}
  - path: "Ossos/osso cintura/osso corpo/Osso Pesco\xE7o/Osso rosto/Pontinha/Osso
      pontinha 1_2"
    localPosition: {x: 0.07457937, y: -0.00000026365888, z: 0}
    localRotation: {x: 0, y: 0, z: 0.35206684, w: 0.9359749}
    localScale: {x: 1, y: 1, z: 1}
  - path: "Ossos/osso cintura/osso corpo/Osso Pesco\xE7o/Osso rosto/Pontinha/Osso
      pontinha 1_2/Osso pontinha !_3"
    localPosition: {x: 0.0682947, y: -0.00000016391277, z: 0}
    localRotation: {x: 0, y: 0, z: 0.23177364, w: 0.97276974}
    localScale: {x: 1, y: 1, z: 1}
  - path: "Ossos/osso cintura/osso corpo/Osso Pesco\xE7o/Osso rosto/Pontinha/Osso
      pontinha 1_2/Osso pontinha !_3/Osso pontinha !_4"
    localPosition: {x: 0.081200406, y: -0.0000004239846, z: 0}
    localRotation: {x: 0, y: 0, z: 0.22187506, w: 0.9750751}
    localScale: {x: 1, y: 1, z: 1}
  - path: "Ossos/osso cintura/osso corpo/Osso Pesco\xE7o/Osso rosto/Mecha 1"
    localPosition: {x: 0.3675958, y: -0.016681992, z: 0}
    localRotation: {x: 0, y: 0, z: 0.9090402, w: 0.4167084}
    localScale: {x: 1, y: 1, z: 1}
  - path: "Ossos/osso cintura/osso corpo/Osso Pesco\xE7o/Osso rosto/Mecha 1/New bone"
    localPosition: {x: 0.089124225, y: 0.000000074505806, z: 0}
    localRotation: {x: 0, y: 0, z: -0.08942159, w: 0.9959939}
    localScale: {x: 1, y: 1, z: 1}
  - path: "Ossos/osso cintura/osso corpo/Osso Pesco\xE7o/Osso rosto/Mecha 1/New bone/New
      bone"
    localPosition: {x: 0.136574, y: 0.00000015908154, z: 0}
    localRotation: {x: 0, y: 0, z: -0.24920034, w: 0.96845204}
    localScale: {x: 1, y: 1, z: 1}
  - path: "Ossos/osso cintura/osso corpo/Osso Pesco\xE7o/Osso rosto/Mecha 1/New bone/New
      bone/New bone"
    localPosition: {x: 0.23046121, y: -0.000000013038516, z: 0}
    localRotation: {x: 0, y: 0, z: -0.24287784, w: 0.9700569}
    localScale: {x: 1, y: 1, z: 1}
  - path: "Ossos/osso cintura/osso corpo/Osso Pesco\xE7o/Osso rosto/Mecha 2"
    localPosition: {x: 0.030578846, y: 0.57434493, z: 0}
    localRotation: {x: 0, y: 0, z: 0.79483616, w: 0.60682416}
    localScale: {x: 1, y: 1, z: 1}
  - path: "Ossos/osso cintura/osso corpo/Osso Pesco\xE7o/Osso rosto/Mecha 2/Mecha
      2"
    localPosition: {x: 0.12241219, y: 0.00000020861626, z: 0}
    localRotation: {x: 0, y: 0, z: -0.106326275, w: 0.9943313}
    localScale: {x: 1, y: 1, z: 1}
  - path: "Ossos/osso cintura/osso corpo/Osso Pesco\xE7o/Osso rosto/Mecha 2/Mecha
      2/Mecha 2"
    localPosition: {x: 0.14372054, y: 0.00000016216654, z: 0}
    localRotation: {x: 0, y: 0, z: 0.6639039, w: 0.7478179}
    localScale: {x: 1, y: 1, z: 1}
  - path: "Ossos/osso cintura/osso corpo/Osso Pesco\xE7o/Osso rosto/Mecha 3"
    localPosition: {x: -0.07731833, y: 0.57174003, z: 0}
    localRotation: {x: 0, y: 0, z: 0.9314056, w: 0.36398295}
    localScale: {x: 1, y: 1, z: 1}
  - path: "Ossos/osso cintura/osso corpo/Osso Pesco\xE7o/Osso rosto/Mecha 3/Mecha
      3"
    localPosition: {x: 0.1495289, y: -0.00000025331974, z: 0}
    localRotation: {x: 0, y: 0, z: -0.4111973, w: -0.9115464}
    localScale: {x: 1, y: 1, z: 1}
  - path: "Ossos/osso cintura/osso corpo/Osso Pesco\xE7o/Osso rosto/Mecha 3/Mecha
      3/Mecha 3"
    localPosition: {x: 0.16830727, y: 0.000000022351742, z: 0}
    localRotation: {x: 0, y: 0, z: 0.58937407, w: 0.80786026}
    localScale: {x: 1, y: 1, z: 1}
  - path: "Ossos/osso cintura/osso corpo/Osso Pesco\xE7o/Osso rosto/Mecha 3/Mecha
      3/Mecha 3/Mecha 3"
    localPosition: {x: 0.15535606, y: 0.00000008195639, z: 0}
    localRotation: {x: 0, y: 0, z: 0.6158753, w: 0.78784364}
    localScale: {x: 1, y: 1, z: 1}
  - path: "Ossos/osso cintura/osso corpo/Osso Pesco\xE7o/Osso rosto/Mecha 4"
    localPosition: {x: -0.14975025, y: -0.072063975, z: 0}
    localRotation: {x: 0, y: 0, z: 0.9815341, w: 0.19128709}
    localScale: {x: 1, y: 1, z: 1}
  - path: "Ossos/osso cintura/osso corpo/Osso Pesco\xE7o/Osso rosto/Mecha 4/Mecha
      4"
    localPosition: {x: 0.2285249, y: -0.00000014901161, z: 0}
    localRotation: {x: 0, y: 0, z: -0.27658874, w: 0.9609884}
    localScale: {x: 1, y: 1, z: 1}
  - path: "Ossos/osso cintura/osso corpo/Osso Pesco\xE7o/Osso rosto/Mecha 4/Mecha
      4/Mecha 4"
    localPosition: {x: 0.113416165, y: 0.00000014528632, z: 0}
    localRotation: {x: 0, y: 0, z: -0.52104115, w: 0.85353154}
    localScale: {x: 1, y: 1, z: 1}
  - path: "Ossos/osso cintura/osso corpo/Osso Pesco\xE7o/Osso rosto/Mecha 4/Mecha
      4/Mecha 4/Mecha 4"
    localPosition: {x: 0.06908412, y: 0.00000039860606, z: 0}
    localRotation: {x: 0, y: 0, z: -0.4718986, w: 0.88165283}
    localScale: {x: 1, y: 1, z: 1}
  - path: "Ossos/osso cintura/osso corpo/Bra\xE7o frente"
    localPosition: {x: 0.39222458, y: 0.04732267, z: 0}
    localRotation: {x: -0, y: 0, z: -0.9916577, w: -0.1288994}
    localScale: {x: 1, y: 1, z: 1}
  - path: "Ossos/osso cintura/osso corpo/Bra\xE7o frente/Cotovelo Frente"
    localPosition: {x: 0.37749407, y: -0.000000011175871, z: 0}
    localRotation: {x: 0, y: 0, z: 0.15357327, w: 0.9881373}
    localScale: {x: 1, y: 1, z: 1}
  - path: "Ossos/osso cintura/osso corpo/Bra\xE7o frente/Cotovelo Frente/M\xE3o Frente"
    localPosition: {x: 0.6468379, y: 0.000000018102583, z: 0}
    localRotation: {x: 0, y: 0, z: 0, w: 1}
    localScale: {x: 1, y: 1, z: 1}
  - path: "Ossos/osso cintura/osso corpo/Bra\xE7o Atras"
    localPosition: {x: 0.3983676, y: 0.06377629, z: 0}
    localRotation: {x: 0, y: 0, z: -0.9752749, w: 0.22099528}
    localScale: {x: 1, y: 1, z: 1}
  - path: "Ossos/osso cintura/osso corpo/Bra\xE7o Atras/Cotovelo Atras"
    localPosition: {x: 0.37398893, y: -0.0000000018626451, z: 0}
    localRotation: {x: 0, y: 0, z: 0.10996916, w: 0.993935}
    localScale: {x: 1, y: 1, z: 1}
  - path: "Ossos/osso cintura/osso corpo/Bra\xE7o Atras/Cotovelo Atras/M\xE3o Atras"
    localPosition: {x: 0.6682715, y: 0.00000008940697, z: 0}
    localRotation: {x: 0, y: 0, z: 0, w: 1}
    localScale: {x: 1, y: 1, z: 1}
  - path: Ossos/osso cintura/Osso pera frente
    localPosition: {x: 0.04374511, y: 0.020512883, z: 0}
    localRotation: {x: 0, y: -0, z: 0.891529, w: -0.4529637}
    localScale: {x: 1, y: 1, z: 1}
  - path: Ossos/osso cintura/Osso pera frente/Joelho frente
    localPosition: {x: 0.1468885, y: 0.0000005364418, z: 0}
    localRotation: {x: 0, y: 0, z: 0.048631895, w: 0.99881685}
    localScale: {x: 1, y: 1, z: 1}
  - path: Ossos/osso cintura/Osso pera frente/Joelho frente/Pe frente
    localPosition: {x: 0.24251011, y: -0.000000002693696, z: 0}
    localRotation: {x: 0, y: 0, z: -0.58580005, w: 0.8104556}
    localScale: {x: 1, y: 1, z: 1}
  - path: Ossos/osso cintura/Osso pera frente/Joelho frente/Pe frente/New bone
    localPosition: {x: 0.23955502, y: -0.00000012045717, z: 0}
    localRotation: {x: 0, y: 0, z: 0, w: 1}
    localScale: {x: 1, y: 1, z: 1}
  - path: "Ossos/osso cintura/Osso perna trr\xE1s"
    localPosition: {x: 0.046731845, y: 0.007845391, z: 0}
    localRotation: {x: -0, y: 0, z: -0.9994925, w: -0.031855423}
    localScale: {x: 1, y: 1, z: 1}
  - path: "Ossos/osso cintura/Osso perna trr\xE1s/Joelho atras"
    localPosition: {x: 0.14226404, y: 0.00000023841858, z: 0}
    localRotation: {x: 0, y: 0, z: 0.06536831, w: 0.9978612}
    localScale: {x: 1, y: 1, z: 1}
  - path: "Ossos/osso cintura/Osso perna trr\xE1s/Joelho atras/pe atras"
    localPosition: {x: 0.23863539, y: 0.0000041127205, z: 0}
    localRotation: {x: 0, y: 0, z: -0.021861672, w: 0.99976104}
    localScale: {x: 1, y: 1, z: 1}
  - path: "Ossos/osso cintura/Osso perna trr\xE1s/Joelho atras/pe atras/New bone"
    localPosition: {x: 0.23676623, y: 0.0000000054667453, z: 0}
    localRotation: {x: 0, y: 0, z: 0, w: 1}
    localScale: {x: 1, y: 1, z: 1}
