%YAML 1.1
%TAG !u! tag:unity3d.com,2011:
--- !u!114 &11400000
MonoBehaviour:
  m_ObjectHideFlags: 0
  m_CorrespondingSourceObject: {fileID: 0}
  m_PrefabInstance: {fileID: 0}
  m_PrefabAsset: {fileID: 0}
  m_GameObject: {fileID: 0}
  m_Enabled: 1
  m_EditorHideFlags: 0
  m_Script: {fileID: 11500000, guid: ae0543fe805424df99fe08ce744cbe49, type: 3}
  m_Name: walk3
  m_EditorClassIdentifier: 
  m_PoseEntries:
  - path: Ossos/osso cintura
    localPosition: {x: 0.003564626, y: -1.0030034, z: 0}
    localRotation: {x: 0, y: 0, z: 0.5809658, w: 0.813928}
    localScale: {x: 1, y: 1, z: 1}
  - path: Ossos/osso cintura/osso corpo
    localPosition: {x: 0.8579554, y: -0.000000059604645, z: 0}
    localRotation: {x: 0, y: 0, z: -0.08132101, w: 0.996688}
    localScale: {x: 1, y: 1, z: 1}
  - path: "Ossos/osso cintura/osso corpo/Osso Pesco\xE7o"
    localPosition: {x: 0.4251004, y: -0.0000000011082193, z: 0}
    localRotation: {x: 0, y: 0, z: 0.14067033, w: 0.9900565}
    localScale: {x: 1, y: 1, z: 1}
  - path: "Ossos/osso cintura/osso corpo/Osso Pesco\xE7o/Osso rosto"
    localPosition: {x: 0.19422312, y: 0.000000013722456, z: 0}
    localRotation: {x: 0, y: 0, z: 0, w: 1}
    localScale: {x: 1, y: 1, z: 1}
  - path: "Ossos/osso cintura/osso corpo/Osso Pesco\xE7o/Osso rosto/Sombrancelha"
    localPosition: {x: 0.39384758, y: -0.1278016, z: 0}
    localRotation: {x: 0, y: 0, z: -0.6429398, w: 0.76591676}
    localScale: {x: 1, y: 1, z: 1}
  - path: "Ossos/osso cintura/osso corpo/Osso Pesco\xE7o/Osso rosto/Sombrancelha/New
      bone"
    localPosition: {x: 0.050418746, y: 0, z: 0}
    localRotation: {x: 0, y: 0, z: -0.17944385, w: 0.9837683}
    localScale: {x: 1, y: 1, z: 1}
  - path: "Ossos/osso cintura/osso corpo/Osso Pesco\xE7o/Osso rosto/Olho"
    localPosition: {x: 0.26884836, y: -0.15929632, z: 0}
    localRotation: {x: 0, y: 0, z: -0.73538774, w: 0.6776466}
    localScale: {x: 1, y: 1, z: 1}
  - path: "Ossos/osso cintura/osso corpo/Osso Pesco\xE7o/Osso rosto/Pontinha"
    localPosition: {x: 0.70410377, y: 0.021552686, z: 0}
    localRotation: {x: 0, y: 0, z: 0.13484246, w: 0.9908671}
    localScale: {x: 1, y: 1, z: 1}
  - path: "Ossos/osso cintura/osso corpo/Osso Pesco\xE7o/Osso rosto/Pontinha/Osso
      pontinha 1_2"
    localPosition: {x: 0.07457937, y: -0.00000026365888, z: 0}
    localRotation: {x: 0, y: 0, z: 0.35206684, w: 0.9359749}
    localScale: {x: 1, y: 1, z: 1}
  - path: "Ossos/osso cintura/osso corpo/Osso Pesco\xE7o/Osso rosto/Pontinha/Osso
      pontinha 1_2/Osso pontinha !_3"
    localPosition: {x: 0.0682947, y: -0.00000016391277, z: 0}
    localRotation: {x: 0, y: 0, z: 0.23177364, w: 0.97276974}
    localScale: {x: 1, y: 1, z: 1}
  - path: "Ossos/osso cintura/osso corpo/Osso Pesco\xE7o/Osso rosto/Pontinha/Osso
      pontinha 1_2/Osso pontinha !_3/Osso pontinha !_4"
    localPosition: {x: 0.081200406, y: -0.0000004239846, z: 0}
    localRotation: {x: 0, y: 0, z: 0.22187506, w: 0.9750751}
    localScale: {x: 1, y: 1, z: 1}
  - path: "Ossos/osso cintura/osso corpo/Osso Pesco\xE7o/Osso rosto/Mecha 1"
    localPosition: {x: 0.3675958, y: -0.016681992, z: 0}
    localRotation: {x: 0, y: 0, z: 0.9090402, w: 0.4167084}
    localScale: {x: 1, y: 1, z: 1}
  - path: "Ossos/osso cintura/osso corpo/Osso Pesco\xE7o/Osso rosto/Mecha 1/New bone"
    localPosition: {x: 0.089124225, y: 0.000000074505806, z: 0}
    localRotation: {x: 0, y: 0, z: -0.08942159, w: 0.9959939}
    localScale: {x: 1, y: 1, z: 1}
  - path: "Ossos/osso cintura/osso corpo/Osso Pesco\xE7o/Osso rosto/Mecha 1/New bone/New
      bone"
    localPosition: {x: 0.136574, y: 0.00000015908154, z: 0}
    localRotation: {x: 0, y: 0, z: -0.24920034, w: 0.96845204}
    localScale: {x: 1, y: 1, z: 1}
  - path: "Ossos/osso cintura/osso corpo/Osso Pesco\xE7o/Osso rosto/Mecha 1/New bone/New
      bone/New bone"
    localPosition: {x: 0.23046121, y: -0.000000013038516, z: 0}
    localRotation: {x: 0, y: 0, z: -0.24287784, w: 0.9700569}
    localScale: {x: 1, y: 1, z: 1}
  - path: "Ossos/osso cintura/osso corpo/Osso Pesco\xE7o/Osso rosto/Mecha 2"
    localPosition: {x: 0.030578846, y: 0.57434493, z: 0}
    localRotation: {x: 0, y: 0, z: 0.79483616, w: 0.60682416}
    localScale: {x: 1, y: 1, z: 1}
  - path: "Ossos/osso cintura/osso corpo/Osso Pesco\xE7o/Osso rosto/Mecha 2/Mecha
      2"
    localPosition: {x: 0.12241219, y: 0.00000020861626, z: 0}
    localRotation: {x: 0, y: 0, z: -0.106326275, w: 0.9943313}
    localScale: {x: 1, y: 1, z: 1}
  - path: "Ossos/osso cintura/osso corpo/Osso Pesco\xE7o/Osso rosto/Mecha 2/Mecha
      2/Mecha 2"
    localPosition: {x: 0.14372054, y: 0.00000016216654, z: 0}
    localRotation: {x: 0, y: 0, z: 0.6639039, w: 0.7478179}
    localScale: {x: 1, y: 1, z: 1}
  - path: "Ossos/osso cintura/osso corpo/Osso Pesco\xE7o/Osso rosto/Mecha 3"
    localPosition: {x: -0.07731833, y: 0.57174003, z: 0}
    localRotation: {x: 0, y: 0, z: 0.9314056, w: 0.36398295}
    localScale: {x: 1, y: 1, z: 1}
  - path: "Ossos/osso cintura/osso corpo/Osso Pesco\xE7o/Osso rosto/Mecha 3/Mecha
      3"
    localPosition: {x: 0.1495289, y: -0.00000025331974, z: 0}
    localRotation: {x: 0, y: 0, z: -0.4111973, w: -0.9115464}
    localScale: {x: 1, y: 1, z: 1}
  - path: "Ossos/osso cintura/osso corpo/Osso Pesco\xE7o/Osso rosto/Mecha 3/Mecha
      3/Mecha 3"
    localPosition: {x: 0.16830727, y: 0.000000022351742, z: 0}
    localRotation: {x: 0, y: 0, z: 0.58937407, w: 0.80786026}
    localScale: {x: 1, y: 1, z: 1}
  - path: "Ossos/osso cintura/osso corpo/Osso Pesco\xE7o/Osso rosto/Mecha 3/Mecha
      3/Mecha 3/Mecha 3"
    localPosition: {x: 0.15535606, y: 0.00000008195639, z: 0}
    localRotation: {x: 0, y: 0, z: 0.6158753, w: 0.78784364}
    localScale: {x: 1, y: 1, z: 1}
  - path: "Ossos/osso cintura/osso corpo/Osso Pesco\xE7o/Osso rosto/Mecha 4"
    localPosition: {x: -0.14975025, y: -0.072063975, z: 0}
    localRotation: {x: 0, y: 0, z: 0.9815341, w: 0.19128709}
    localScale: {x: 1, y: 1, z: 1}
  - path: "Ossos/osso cintura/osso corpo/Osso Pesco\xE7o/Osso rosto/Mecha 4/Mecha
      4"
    localPosition: {x: 0.2285249, y: -0.00000014901161, z: 0}
    localRotation: {x: 0, y: 0, z: -0.27658874, w: 0.9609884}
    localScale: {x: 1, y: 1, z: 1}
  - path: "Ossos/osso cintura/osso corpo/Osso Pesco\xE7o/Osso rosto/Mecha 4/Mecha
      4/Mecha 4"
    localPosition: {x: 0.113416165, y: 0.00000014528632, z: 0}
    localRotation: {x: 0, y: 0, z: -0.52104115, w: 0.85353154}
    localScale: {x: 1, y: 1, z: 1}
  - path: "Ossos/osso cintura/osso corpo/Osso Pesco\xE7o/Osso rosto/Mecha 4/Mecha
      4/Mecha 4/Mecha 4"
    localPosition: {x: 0.06908412, y: 0.00000039860606, z: 0}
    localRotation: {x: 0, y: 0, z: -0.4718986, w: 0.88165283}
    localScale: {x: 1, y: 1, z: 1}
  - path: "Ossos/osso cintura/osso corpo/Bra\xE7o frente"
    localPosition: {x: 0.39221865, y: 0.047321845, z: 0}
    localRotation: {x: -0, y: 0, z: -0.9993392, w: -0.036347076}
    localScale: {x: 1, y: 1, z: 1}
  - path: "Ossos/osso cintura/osso corpo/Bra\xE7o frente/Cotovelo Frente"
    localPosition: {x: 0.37749407, y: -0.000000011175871, z: 0}
    localRotation: {x: 0, y: 0, z: 0.1309716, w: 0.9913861}
    localScale: {x: 1, y: 1, z: 1}
  - path: "Ossos/osso cintura/osso corpo/Bra\xE7o frente/Cotovelo Frente/M\xE3o Frente"
    localPosition: {x: 0.6468379, y: 0.000000018102583, z: 0}
    localRotation: {x: 0, y: 0, z: 0, w: 1}
    localScale: {x: 1, y: 1, z: 1}
  - path: "Ossos/osso cintura/osso corpo/Bra\xE7o Atras"
    localPosition: {x: 0.39835897, y: 0.06377462, z: 0}
    localRotation: {x: 0, y: 0, z: -0.9805993, w: 0.1960232}
    localScale: {x: 1, y: 1, z: 1}
  - path: "Ossos/osso cintura/osso corpo/Bra\xE7o Atras/Cotovelo Atras"
    localPosition: {x: 0.37398893, y: -0.0000000018626451, z: 0}
    localRotation: {x: 0, y: 0, z: 0.3007181, w: 0.95371306}
    localScale: {x: 1, y: 1, z: 1}
  - path: "Ossos/osso cintura/osso corpo/Bra\xE7o Atras/Cotovelo Atras/M\xE3o Atras"
    localPosition: {x: 0.6682715, y: 0.00000008940697, z: 0}
    localRotation: {x: 0, y: 0, z: 0, w: 1}
    localScale: {x: 1, y: 1, z: 1}
  - path: Ossos/osso cintura/Osso pera frente
    localPosition: {x: 0.043745235, y: 0.020512912, z: 0}
    localRotation: {x: 0, y: -0, z: 0.9707249, w: -0.24019404}
    localScale: {x: 1, y: 1, z: 1}
  - path: Ossos/osso cintura/Osso pera frente/Joelho frente
    localPosition: {x: 0.14688835, y: -0.00000008285321, z: 0}
    localRotation: {x: 0, y: 0, z: 0.005576287, w: 0.9999845}
    localScale: {x: 1, y: 1, z: 1}
  - path: Ossos/osso cintura/Osso pera frente/Joelho frente/Pe frente
    localPosition: {x: 0.24251011, y: -0.000000002693696, z: 0}
    localRotation: {x: 0, y: 0, z: -0.21739665, w: 0.97608334}
    localScale: {x: 1, y: 1, z: 1}
  - path: Ossos/osso cintura/Osso pera frente/Joelho frente/Pe frente/New bone
    localPosition: {x: 0.23955502, y: -0.00000012045717, z: 0}
    localRotation: {x: 0, y: 0, z: 0, w: 1}
    localScale: {x: 1, y: 1, z: 1}
  - path: "Ossos/osso cintura/Osso perna trr\xE1s"
    localPosition: {x: 0.043745235, y: 0.020512912, z: 0}
    localRotation: {x: 0, y: 0, z: -0.9053466, w: 0.42467362}
    localScale: {x: 1, y: 1, z: 1}
  - path: "Ossos/osso cintura/Osso perna trr\xE1s/Joelho atras"
    localPosition: {x: 0.14226416, y: 0.0000002552514, z: 0}
    localRotation: {x: 0, y: 0, z: -0.103096336, w: 0.99467146}
    localScale: {x: 1, y: 1, z: 1}
  - path: "Ossos/osso cintura/Osso perna trr\xE1s/Joelho atras/pe atras"
    localPosition: {x: 0.23863745, y: 0.0000010649247, z: 0}
    localRotation: {x: 0, y: 0, z: -0.70726717, w: 0.7069464}
    localScale: {x: 1, y: 1, z: 1}
  - path: "Ossos/osso cintura/Osso perna trr\xE1s/Joelho atras/pe atras/New bone"
    localPosition: {x: 0.23676623, y: 0.0000000054667453, z: 0}
    localRotation: {x: 0, y: 0, z: 0, w: 1}
    localScale: {x: 1, y: 1, z: 1}
